"NodeID"	"Node_abbrev"	"Name"
0	"Ac"	"Abcoude"
1	"Ah"	"Arnhem"
2	"Ahp"	"Arnhem Velperpoort"
3	"Ahpr"	"Arnhem Presikhaaf"
4	"Akl"	"Arkel"
5	"Akm"	"Akkrum"
6	"Alm"	"Almere"
7	"Almb"	"Almere Buiten"
8	"Almm"	"Almere Muziekwijk"
9	"Almp"	"Almere Parkwijk"
10	"Amf"	"Amersfoort"
11	"Amfs"	"Amersfoort Schothorst"
12	"Aml"	"Almelo"
13	"Amr"	"Alkmaar"
14	"Amri"	"Almelo-De Riet"
15	"Amrn"	"Alkmaar Noord"
16	"Ana"	"Anna-Paulowna"
17	"Apd"	"Apeldoorn"
18	"Apg"	"Appingedam"
19	"Apn"	"Alphen a/d Rijn"
20	"Arn"	"Arnemuiden"
21	"Asa"	"Amsterdam Amstel"
22	"Asb"	"Amsterdam Bijlmer"
23	"Asd"	"Amsterdam Centraal"
24	"Asdl"	"Amsterdam Lelylaan"
25	"Asdm"	"Amsterdam Muiderpoort"
26	"Asdv"	"Amsterdam Vlugtlaan"
27	"Asdz"	"Amsterdam-Zuid WTC"
28	"Asn"	"Assen"
29	"Ass"	"Amsterdam Sloterdijk"
30	"Atn"	"Aalten"
31	"Bd"	"Breda"
32	"Bde"	"Bunde"
33	"Bdg"	"Bodegraven"
34	"Bdm"	"Bedum"
35	"Bdpb"	"Breda-Prinsenbeek"
36	"Bet"	"Best"
37	"Bf"	"Baflo"
38	"Bgn"	"Bergen op Zoom"
39	"Bhv"	"Bilthoven"
40	"Bk"	"Beek=Elsloo"
41	"Bkf"	"Bovenkarspel-Flora"
42	"Bkg"	"Bovenkarspel=Grootebroek"
43	"Bkl"	"Breukelen"
44	"Bl"	"Beilen"
45	"Bll"	"Bloemendaal"
46	"Bmn"	"Brummen"
47	"Bmr"	"Boxmeer"
48	"Bn"	"Borne"
49	"Bnc"	"Barneveld-Centrum"
50	"Bnk"	"Bunnik"
51	"Bnn"	"Barneveld-Noord"
52	"Bp"	"Buitenpost"
53	"Br"	"Blerick"
54	"Brd"	"Barendrecht"
55	"Brn"	"Baarn"
56	"Bsd"	"Beesd"
57	"Bsk"	"Boskop"
58	"Bsmz"	"Bussum-Zuid"
59	"Btl"	"Boxtel"
60	"Bv"	"Beverwijk"
61	"Bzl"	"Kapelle=Biezelinge"
62	"Cas"	"Castricum"
63	"Ck"	"Cuijk"
64	"Cl"	"Culemborg"
65	"Co"	"Coevorden"
66	"Cps"	"Capelle-Schollevaar"
67	"Cvm"	"Chevremont"
68	"Da"	"Daarlerveen"
69	"Db"	"Driebergen=Zeist"
70	"Ddn"	"Delden"
71	"Ddr"	"Dordrecht"
72	"Ddrs"	"Dordrecht-Stadspolders"
73	"Ddzd"	"Dordrecht-Zuid"
74	"Dei"	"Deinum"
75	"Did"	"Didam"
76	"Dl"	"Dalfsen"
77	"Dld"	"Den Dolder"
78	"Dln"	"Dalen"
79	"Dmn"	"Diemen"
80	"Dmnz"	"Diemen-Zuid"
81	"Dmp"	"Zoetermeer-Driemanspolder"
82	"Dn"	"Deurne"
83	"Dr"	"Dieren"
84	"Drh"	"Driehuis"
85	"Drp"	"Dronrijp"
86	"Dt"	"Delft"
87	"Dtc"	"Doetinchem"
88	"Dtch"	"Doetinchem-De Huet"
89	"Dtwa"	"Zoetermeer - Delftse Wallen"
90	"Dtz"	"Delft-Zuid"
91	"Dv"	"Deventer"
92	"Dvc"	"Deventer-Comschate"
93	"Dvd"	"Duivendrecht"
94	"Dvn"	"Duiven"
95	"Dvnk"	"De Vink"
96	"Dz"	"Delfzijl"
97	"Dzw"	"Delfzijl-West"
98	"Ec"	"Echt"
99	"Ed"	"Ede=Wageningen"
100	"Edc"	"Ede-Centrum"
101	"Edn"	"Eijsden"
102	"Egh"	"Eygelshoven"
103	"Ehb"	"Eindhoven-Beukenlaan"
104	"Ehv"	"Eindhoven"
105	"Ekz"	"Enkhuizen"
106	"Eml"	"Ermelo"
107	"Emn"	"Emmen"
108	"Emnb"	"Emmen-Bargeres"
109	"Es"	"Enschede"
110	"Est"	"Elst"
111	"Etn"	"Etten=Leur"
112	"Fn"	"Franeker"
113	"Gbg"	"Gramsbergen"
114	"Gd"	"Gouda"
115	"Gdg"	"Gouda-Goverwelle"
116	"Gdk"	"Geerdijk"
117	"Gdm"	"Geldermalsen"
118	"Gk"	"Grijpskerk"
119	"Gln"	"Geleen-Oost"
120	"Gn"	"Groningen"
121	"Gnd"	"Hardinxveld=Giessendam"
122	"Gnn"	"Groningen-Noord"
123	"Go"	"Goor"
124	"Gp"	"Geldrop"
125	"Gr"	"Gorinchem"
126	"Gs"	"Goes"
127	"Gv"	"Den Haag Holland Spoor"
128	"Gvc"	"Den Haag Centraal"
129	"Gvm"	"Den Haag Mariahoeve"
130	"Gvmw"	"Den Haag Moerwijk"
131	"Gw"	"Grou-Jirnsum"
132	"Gz"	"Gilze=Rijen"
133	"Had"	"Heemstede=Aerdenhout"
134	"Hb"	"Hoensbroek"
135	"Hd"	"Harderwijk"
136	"Hdb"	"Hardenberg"
137	"Hde"	"´t Harde"
138	"Hdg"	"Hardegarijp"
139	"Hdr"	"Den Helder"
140	"Hdrz"	"Den Helder-Zuid"
141	"Hfd"	"Hoofddorp"
142	"Hgl"	"Hengelo"
143	"Hglo"	"Hengelo-Oost"
144	"Hgv"	"Hoogeveen"
145	"Hgz"	"Hoogezand=Sappemeer"
146	"Hil"	"Hillegom"
147	"Hk"	"Heemskerk"
148	"Hks"	"Hoogkarspel"
149	"Hld"	"Hoek Van Holland"
150	"Hlds"	"Hoek van Holland Strand"
151	"Hlg"	"Harlingen"
152	"Hlgh"	"Harlingen Haven"
153	"Hlm"	"Haarlem"
154	"Hlo"	"Heiloo"
155	"Hm"	"Helmond"
156	"Hmbh"	"Helmond-Brouwhuis"
157	"Hmh"	"Helmond - 't Hout"
158	"Hmn"	"Hemmen=Dodewaard"
159	"Hn"	"Hoorn"
160	"Hnk"	"Hoorn-Kersenboogaard"
161	"Hno"	"Heinoo"
162	"Hnp"	"Hindeloopen"
163	"Hon"	"Holten"
164	"Hor"	"Hollandsche Rading"
165	"Hr"	"Heerenveen"
166	"Hrl"	"Heerlen"
167	"Hrn"	"Haren"
168	"Hrt"	"Horst=Sevenum"
169	"Hry"	"Heerenveen IJsstadion"
170	"Ht"	"´s-Hertogenbosch"
171	"Htn"	"Houten"
172	"Hto"	"´s-Hertogenbosch-Oost"
173	"Hvs"	"Hilversum"
174	"Hvsn"	"Hilversum-Noord"
175	"Hvsp"	"Hilversum-Sportpark"
176	"Hwd"	"Heerhugowaard"
177	"Hze"	"Heeze"
178	"IJt"	"IJlst"
179	"Kbd"	"Krabendijke"
180	"Kbk"	"Klarenbeek"
181	"Kbw"	"Koog=Bloemwijk"
182	"Klp"	"Veenendaal=De Klomp"
183	"Kma"	"Krommenie=Assendelft"
184	"Kmr"	"Klimmen=Ransdaal"
185	"Kmw"	"Koudum=Molkwerum"
186	"Krd"	"Kerkrade"
187	"Krg"	"Kruiningen=Yerseke"
188	"Ktr"	"Kesteren"
189	"Kw"	"Kropswolde"
190	"Kzd"	"Koog aan de Zaan"
191	"Laa"	"Den Haag Laan van Nieuw-Oost-Indië"
192	"Lc"	"lochem"
193	"Ldl"	"Leiden-Lammenschans"
194	"Ldm"	"Leerdam"
195	"Ldv"	"Leidschemdam=Voorburg"
196	"Ledn"	"Leiden"
197	"Ley"	"Zoetermeer - De Leyens"
198	"Lg"	"Landgraaf"
199	"Lls"	"Lelystad"
200	"Lp"	"Loppersum"
201	"Ltn"	"Lunteren"
202	"Ltv"	"Lichtenvoorde=Groenlo"
203	"Lut"	"Geleen=Lutterade"
204	"Lw"	"Leeuwarden"
205	"Mas"	"Maarssen"
206	"Mdb"	"Middelburg"
207	"Mes"	"Meerssen"
208	"Mg"	"Mantgum"
209	"Mp"	"Meppel"
210	"Mrb"	"Mariënberg"
211	"Mrn"	"Maarn"
212	"Mss"	"Maassluis"
213	"Msw"	"Maassluis-West"
214	"Mt"	"Maastricht"
215	"Mth"	"Martenshoek"
216	"Mtr"	"Maastricht-Randwyck"
217	"Na"	"Nieuw Amsterdam"
218	"Ndb"	"Naarden=Bussum"
219	"Nh"	"Nuth"
220	"Nkk"	"Nijkerk"
221	"Nm"	"Nijmegen"
222	"Nmd"	"Nijmegen-Dukenburg"
223	"Nmh"	"Nijmegen-Heyendaal"
224	"Ns"	"Nunspeet"
225	"Nsch"	"Nieuweschans"
226	"Nvd"	"Nijverdal"
227	"Nvp"	"Nieuw-Vennep"
228	"Nwk"	"Nieuwerkerk a/d IJssel"
229	"Nwl"	"Schiedam-Nieuwland"
230	"O"	"Oss"
231	"Obd"	"Obdam"
232	"Odb"	"Oudenbosch"
233	"Odz"	"Oldenzaal"
234	"Omn"	"Ommen"
235	"Op"	"Opheusden"
236	"Ost"	"Olst"
237	"Ot"	"Oisterwijk"
238	"Otb"	"Oosterbeek"
239	"Ovn"	"Overveen"
240	"Ow"	"Oss-West"
241	"Pmo"	"Purmerend Overwhere"
242	"Pmr"	"Purmerend"
243	"Pnk"	"Pijnacker"
244	"Pt"	"Putten"
245	"Rai"	"Amsterdam-RAI"
246	"Rat"	"Raalte"
247	"Rb"	"Rilland-Bath"
248	"Rd"	"Roodeschool"
249	"Rdr"	"Berkel en Rodenrijs"
250	"Rh"	"Rheden"
251	"Rhn"	"Rhenen"
252	"Rl"	"Ruurlo"
253	"Rlb"	"Roterdam Lombardijen"
254	"Rm"	"Roermond"
255	"Rs"	"Rosmalen"
256	"Rsd"	"Roosendaal"
257	"Rsn"	"Rijssen"
258	"Rsw"	"Rijswijk"
259	"Rta"	"Rotterdam-Alexander"
260	"Rtb"	"Rotterdam Blaak"
261	"Rtbw"	"Rotterdam Bergweg"
262	"Rtd"	"Rotterdam Centraal"
263	"Rth"	"Rotterdam Hofplein"
264	"Rtkw"	"Rotterdam Kleiweg"
265	"Rtn"	"Roterdam Noord"
266	"Rtwp"	"Rotterdam Wilgenplas"
267	"Rtz"	"Rotterdam Zuid"
268	"Rv"	"Reuver"
269	"Rvs"	"Ravenstein"
270	"Sbk"	"Spaubeek"
271	"Sd"	"Soestdijk"
272	"Sda"	"Scheemda"
273	"Sdm"	"Schiedam Centrum"
274	"Sdn"	"Soestduinen"
275	"Sdt"	"Sliedrecht"
276	"Sgl"	"Houthem=St. Gerlach"
277	"Sgn"	"Schagen"
278	"Shl"	"Schiphol"
279	"Sk"	"Sneek"
280	"Sknd"	"Sneek Noord"
281	"Sm"	"Swalmen"
282	"Sn"	"Schinnen"
283	"Sog"	"Schin op Geul"
284	"Spm"	"Sappemeer Oost"
285	"Sptn"	"Santpoort Noord"
286	"Sptz"	"Santpoort Zuid"
287	"Srn"	"Susteren"
288	"St"	"Soest"
289	"Std"	"Sittard"
290	"Stm"	"Stedum"
291	"Stv"	"Stavoren"
292	"Stz"	"Soest Zuid"
293	"Swd"	"Sauwerd"
294	"Swk"	"Steenwijk"
295	"Tb"	"Tilburg"
296	"Tbg"	"Terborg"
297	"Tbwt"	"Tilburg West"
298	"Tg"	"Tegelen"
299	"Tl"	"Tiel"
300	"Uhm"	"Uithuizermeeden"
301	"Uhz"	"Uithuizen"
302	"Ust"	"Usquert"
303	"Ut"	"Utrecht Centraal"
304	"Utg"	"Uitgeest"
305	"Utl"	"Utrecht Lunetten"
306	"Utm"	"Utrecht Maliebaan (Museum)"
307	"Uto"	"Utrecht Overvecht"
308	"Vb"	"Voorburg"
309	"Vbl"	"Voorburg - 't Loo"
310	"Vd"	"Vorden"
311	"Vdg"	"Vlaardingen"
312	"Vdl"	"Voerendaal"
313	"Vdo"	"Vlaardingen Oost"
314	"Vdw"	"Vlaardingen West"
315	"Vg"	"Vught"
316	"Vh"	"Voorhout"
317	"Vhp"	"Vroomshoop"
318	"Vk"	"Valkenburg"
319	"Vl"	"Venlo"
320	"Vlb"	"Vierlingsbeek"
321	"Vndc"	"Veenendaal Centrum"
322	"Vndw"	"Veenendaal West"
323	"Vry"	"Venray"
324	"Vs"	"Vlissingen"
325	"Vss"	"Vlissingen-Souburg"
326	"Vst"	"Voorschoten"
327	"Vsv"	"Varsseveld"
328	"Vtn"	"Vleuten"
329	"Vwd"	"Veenwouden"
330	"Vz"	"Vriezeveen"
331	"Wad"	"Waddinxveen"
332	"Wadn"	"Waddinxveen Noord"
333	"Wc"	"Wijchen"
334	"Wd"	"Woerden"
335	"Wdn"	"Wierden"
336	"Wf"	"Wolfheze"
337	"Wfm"	"Warffum"
338	"Wh"	"Wijhe"
339	"Wk"	"Workum"
340	"Wl"	"Wehl"
341	"Wm"	"Wormerveer"
342	"Wp"	"Weesp"
343	"Ws"	"Winschoten"
344	"Wsm"	"Winsum"
345	"Wt"	"Weert"
346	"Wv"	"Wolvega"
347	"Ww"	"Winterwijk"
348	"Wz"	"Wezep"
349	"Za"	"Zetten=Andelst"
350	"Zb"	"Zuidbroek"
351	"Zbm"	"Zaltbommel"
352	"Zd"	"Zaandam"
353	"Zdk"	"Zaandam-Kogerveld"
354	"Zh"	"Zuidhorn"
355	"Zl"	"Zwolle"
356	"Zlw"	"Lage Zwaluwe"
357	"Zp"	"Zutphen"
358	"Zsh"	"Zoetermeer Stadhuis"
359	"Ztm"	"Zoetermeer"
360	"Ztmb"	"Zoetermeer Buytenwegh"
361	"Ztmcw"	"Zoetermeer Centrum West"
362	"Ztmd"	"Zoetermeer Dorp"
363	"Ztml"	"Zoetermeer Leidse Wallen"
364	"Ztmm"	"Zoetermeer Meerzicht"
365	"Ztmo"	"Zoetermeer Oost"
366	"Ztmp"	"Zoetermeer Palenstein"
367	"Ztms"	"Zoetermeer Segwaert"
368	"Ztmv"	"Zoetermeer Voorweg"
369	"Zv"	"Zevenaar"
370	"Zvb"	"Zevenbergen"
371	"Zvt"	"Zantvoort aan Zee"
372	"Zwd"	"Zwijndrecht"
373	"Zww"	"Zwaagwesteinde"
